

  {
    "Name": "Full Metal Jacket (FMJ)",
    "Effect": "This ammunition consists of lead bullets encased in a metal casing. This is the standard ammunition for all firearms. It has no special rules.",
    "Type": "Cased"
  },
  {
    "Name": "Surplus Ammunition",
    "Effect": "This ammunition consists of plain lead bullet that lacks the quality of modern manufacturing. Quantity has a quality all it's own. It provides +30% error range.",
    "Type": "Cased"
  },
  {
    "Name": "Jacketed Hollow Point (JHP)",
    "Effect": "This ammunition contains a conical cavity in the nose of the bullet that “mushrooms” inside a target, transferring greater kinetic energy. It provides a +2 damage bonus plus +1 damage bonus per damage dice over 3, against unarmored targets.",
    "Type": "Cased"
  },
  {
    "Name": "Semi Jacketed Hollow Point (SJHP)",
    "Effect":"This ammunition contains a conical cavity in the nose of the bullet that “mushrooms” in a target, transferring greater kinetic energy, but the metal jacket extends about halfway up the bullet, exposing the bare lead underneath. It provides a +1 damage bonus per damage dice and +15% error range.",
    "Type": "Cased"
  },
  {
    "Name": "Semi Jacketed Soft Point (SJSP)",
    "Effect": "This ammunition is a bullet that has the metal jacket that extends about halfway up the bullet, exposing the bare lead underneath. It provides a +2 damage bonus per damage dice and +15% error range.",
    "Type": "Cased"
  },
  {
    "Name": "Armor Piercing",
    "Effect": "This ammunition is specifically constructed to pierce armor. When attacking targets that are armored or have natural armor to ballistic damage, it provides −1 ballistic damage die, but also provides +2 piercing damage dice, plus +1 piercing damage dice per 2 damage dice over 2.",
    "Type": "Cased"
  },
  {
    "Name": "Incendiary",
    "Effect": "This ammunition contains a compound that burns rapidly and causes fires. It provides +1 fire damage die and +10% error range.",
    "Type": "Cased"
  },
  {
    "Name": "Frangible",
    "Effect": "This ammunition is designed not to pierce solid surfaces such as schoolhouse walls or aircraft bulkheads. It provides a −4 damage penalty against armored targets and a +3 damage bonus against unarmored targets. Any object with a Hardness of 2 or greater immediately defeats this ammunition.",
    "Type": "Cased"
  },
  {
    "Name": "Non-lethal",
    "Effect": "This ammunition consists of a rubber bullet. Converts all damage to non-lethal damage, and only deals damage within the first two range increments.",
    "Type": "Cased"
  },
  {
    "Name": "Match Grade",
    "Effect": "This ammunition is of high quality, used for competition target shooting and precision sniping. It provides a +3 attack bonus when used with a match barrel and a +2 attack bonus when used with a precision barrel.",
    "Type": "Cased"
  },
  {
    "Name": "Tracer",
    "Effect": "This ammunition leaves a string of light when fired, allowing for correcting when firing multiple shots. It provides a +1 attack bonus for all multi-shot attack rolls as long as 50% of the fired rounds are tracers.",
    "Type": "Cased"
  },
  {
    "Name": "Blank",
    "Effect": "This ammunition lacks any projectile, simply creating a loud bang and muzzle flash. It converts all damage to no damage and provides a 50% error range. If blank ammunition makes up more than one-fifth of the rounds fired, the firearm's attack does no damage.",
    "Type": "Cased"
  },
  {
    "Name": "Wadcutter",
    "Effect": "This ammunition is a special-purpose flat-nosed bullet specially designed for shooting paper targets, usually at close range and at subsonic velocities. It provides a +4 damage plus a +2 damage bonus per damage dice within the first range increment, against unarmored targets and a +30% error range. ",
    "Type": "Cased"
  },
  {
    "Name": "Semi-wadcutter",
    "Effect": "This ammunition is a compromise between the wadcutter and FMJ ammunition, featuring the sharp edges of a wadcutter, with the slightly tapered nose of a FMJ bullet. It provides a +2 damage per damage dice within the first two range increments, against unarmored targets and a +20% error range.",
    "Type": "Cased"
  },
  {
    "Name": "Exploding",
    "Effect": "This ammunition is a bullet that has a small cavity filled with low explosives within the tip, designed to go off once it impacts something hard, such as bone. It grants +1 additional damage dice of concussion damage that affects the target's CHP immediately and +10% error range.",
    "Type": "Cased"
  },
  {
    "Name": "Solid",
    "Effect": "This ammunition is a bullet machined out of a solid piece of metal, usually copper or brass. It provides a +6 damage bonus and a +3 damage bonus per 2 damage dice over 3, increases the recoil penalty by 1 per damage dice over 2, and a +25% error range.",
    "Type": "Cased"
  },
  {
    "Name": "Rat Shot",
    "Effect": "This ammunition is a bullet with a plastic cap filled with birdshot, turning any firearm loaded with it into an impromptu shotgun. It grants a −8 damage penalty and a +2 attack bonus, but is only effective for 50’.",
    "Type": "Cased"
  }
	{
    "Name": "Cold",
    "Effect": "This ammunition is a small, thin copper jacket with a liquid nitrogen center. It provides −1 damage die and +1 cold damage die. After the target is hit with this ammunition, they lose 1d4 Combat Points for 1 round. This effect does not stack.",
    "Type": "Cased"
  }
    {
    "Name": "Acid",
    "Effect": "This ammunition is a small, thin copper jacket with a tiny glass liner and an acid center. It provides −1 damage die and +1 acid damage die. After the target is hit with this ammunition, they take +1 acid damage die every round for 2 rounds.",
    "Type": "Cased"
  }
    {
    "Name": "Electric",
    "Effect": "This ammunition is a miniature taser round, with a high capacity capacitor designed to kill, not stun. It converts all damage to electric and provides a +10% Error Range.",
    "Type": "Cased"
  }
      {
    "Name": "Gel",
    "Effect": "This ammunition consists of a solidified gel bullet used for non-lethal takedowns when the user still wants the ability to take down a target lethally without changing ammunition, albeit with less power than a normal round. When aimed center mass, or at the arms or legs, this ammunition provides +1 damage die and all damage is non-lethal. When aimed at the head, the damage is ballistic and does not provide any additional damage die. For the purposes of armor, this ammunition is considered ballistic and bludgeoning and is stopped by both types of armor. This ammunition only deals damage within the first range increment.",
    "Type": "Cased"
  }
      {
    "Name": "Ultraviolet",
    "Effect": "This ammunition gives a sudden bright flash of ultraviolet light when it strikes its target, very useful when fighting creatures that are affected by ultraviolet light. This is considered a sliver of light to those affected. This ammunition provides −1 damage die and a +5% Error Range.",
    "Type": "Cased"
  }
      {
    "Name": "Silver Nitrate",
    "Effect": "This ammunition is a silver jacketed bullet that holds powdered silver nitrate, used against any creatures that may have an aversion to silver. This ammunition provides −1 damage die and a +5% Error Range.",
    "Type": "Cased"
  }
  
  
  
  

  {
    "Name": "00 Buckshot",
    "Effect": "This ammunition consists of .33 caliber heavy lead balls fired simultaneously from a single shell. It has no special rules.",
    "Type": "Shell"
  },
  {
    "Name": "#4 Buckshot",
    "Effect": "This ammunition consists of .24 caliber heavy lead balls fired simultaneously from a single shell. It is weaker than buckshot, but still an effective defensive load. It grants a +2 attack bonus within the first 2 range increments and a −4 damage penalty.",
    "Type": "Shell"
  },
  {
    "Name": "#9 Birdshot",
    "Effect": "This ammunition is similar in design to buckshot, except that the pellets are much smaller and more numerous. It provides a +6 attack bonus and −3 damage dice.",
    "Type": "Shell"
  },
  {
    "Name": "#6 Birdshot",
    "Effect": "This ammunition is similar in design to buckshot, except that the pellets are much smaller and more numerous. It provides a +4 attack bonus and −2 damage dice.",
    "Type": "Shell"
  },
  {
    "Name": "#3 Birdshot",
    "Effect": "This ammunition is similar in design to buckshot, except that the pellets are much smaller and more numerous. It provides a +2 attack bonus and −1 damage dice.",
    "Type": "Shell"
  },
  {
    "Name": "Slug",
    "Effect": "This ammunition consists of a single massive cylinder of lead. It provides a −2 attack penalty and +2 damage dice.",
    "Type": "Shell"
  },
  {
    "Name": "Wax Slug",
    "Effect": "This ammunition consists of birdshot that has been solidified in wax. It grants +1 damage die. It cannot take the benefits of a slug barrel.",
    "Type": "Shell"
  },
  {
    "Name": "Saboted Slug",
    "Effect": "This ammunition increases a shotgun's range. This ammunition multiples a shotgun's range increment by 1.5 rounded up to the nearest 5', and provides +1 damage die.",
    "Type": "Shell"
  },
    {
    "Name": "Armored Piercing Slug",
    "Effect": "This ammunition is specifically constructed to pierce armor. It provides a −2 attack penalty, and when attacking targets that are armored or have natural armor to ballistic damage, it provides −1 ballistic damage die, but also provides +2 piercing damage dice, plus +1 piercing damage dice per 2 damage dice over 2.",
    "Type": "Shell"
  },
  {
    "Name": "Magnum 00 Buckshot",
    "Effect": "This ammunition is comprised of larger shells that allow for more powder and shot. All modern-day shotguns with internal magazines can chamber magnum shells, but when using it with any shotguns with an internal magazine above 3, they lose 1 round of capacity per 3 when using magnum ammunition. It provides a +1 damage die, a +3 damage bonus and increases the Recoil Penalty by 2.",
    "Type": "Shell"
  },
  {
    "Name": "Magnum #4 Buckshot",
    "Effect": "This ammunition is comprised of larger shells that allow for more powder and shot. All modern-day shotguns with internal magazines can chamber magnum shells, but when using it with any shotguns with an internal magazine above 3, they lose 1 round of capacity per 3 when using magnum ammunition. It provides a +2 attack bonus, and increses the Recoil Penalty by 2.",
    "Type": "Shell"
  },
  {
    "Name": "Magnum #9 Birdshot",
    "Effect": "This ammunition is comprised of larger shells that allow for more powder and shot. All modern-day shotguns with internal magazines can chamber magnum shells, but when using it with any shotguns with an internal magazine above 3, they lose 1 round of capacity per 3 when using magnum ammunition. It provides a −3 damage dice, a +6 attack bonus, a +2 damage bonus, and increases the Recoil Penalty by 2.",
    "Type": "Shell"
  },
  {
    "Name": "Magnum #6 Birdshot",
    "Effect": "This ammunition is comprised of larger shells that allow for more powder and shot. All modern-day shotguns with internal magazines can chamber magnum shells, but when using it with any shotguns with an internal magazine above 3, they lose 1 round of capacity per 3 when using magnum ammunition. It provides a −2 damage dice, a +4 attack bonus, a +3 damage bonus, and increases the Recoil Penalty by 2.",
    "Type": "Shell"
  },
  {
    "Name": "Magnum #3 Birdshot",
    "Effect": "This ammunition is comprised of larger shells that allow for more powder and shot. All modern-day shotguns with internal magazines can chamber magnum shells, but when using it with any shotguns with an internal magazine above 3, they lose 1 round of capacity per 3 when using magnum ammunition. It provides a −1 damage die, a +2 attack bonus, a +4 damage bonus, and increases the Recoil Penalty by 2.",
    "Type": "Shell"
  },
  {
    "Name": "Magnum Slug",
    "Effect": "This ammunition is comprised of larger shells that allow for more powder and shot. All modern-day shotguns with internal magazines can chamber magnum shells, but when using it with any shotguns with an internal magazine above 3, they lose 1 round of capacity per 3 when using magnum ammunition.It provides a +2 damage dice, a −2 attack penalty, a +6 damage bonus, and increases the Recoil Penalty by 3.",
    "Type": "Shell"
  },
  {
    "Name": "Mini 00 Buckshot",
    "Effect": "This ammunition is comprised of smaller shells that allow for more shells to be placed in a shotgun tube, at the cost of both powder and shot. All modern-day shotguns with internal magazines can chamber mini shells, but when using it with any shotguns with an internal magazine above 3, they gain 1 round of capacity per 3 when using mini ammunition. It Provides a −5 damage penalty, reduces the Recoil Penalty by 2 and provides a +25% error range.",
    "Type": "Shell"
  },
  {
    "Name": "Mini Slug",
    "Effect": "This ammunition is comprised of smaller shells that allow for more shells to be placed in a shotgun tube, at the cost of both powder and shot. All modern-day shotguns with internal magazines can chamber mini shells, but when using it with any shotguns with an internal magazine above 3, they gain 1 round of capacity per 3 when using mini ammunition.It provides a +1 damage dice, a −2 attack penalty, reduces the Recoil Penalty by 3, and provides a +25% error range.",
    "Type": "Shell"
  },
  {
    "Name": "Non-lethal Rubber Ball",
    "Effect": "This ammunition deals non-lethal damage only and provides a 20% error range increase.",
    "Type": "Shell"
  },
  {
    "Name": "Non-lethal Beanbag",
    "Effect": "This ammunition deals non-lethal damage only, provides a −2 attack penalty and +2 damage dice, and a 20% error range increase.",
    "Type": "Shell"
  },
  {
    "Name": "Non-lethal Rock Salt",
    "Effect": "This ammunition deals non-lethal damage only, Provides a +1 damage dice, a −2 attack penalty, reduces the Recoil Penalty by 3, and provides a +25% error range.",
    "Type": "Shell"
  },
  {
    "Name": "Stun Ammunition",
    "Effect": "This ammunition is a shotgun-launchable flashbang shell, that works exactly like its thrown counterpart. It has a maximum range of 45’ and a blast radius of 15’. Any target caught in the blast must make a Will Saving Throw [TN16] or be blinded for 1d4 rounds, and a Fortitude Saving Throw [TN16] to avoid being deafened for 1d4 rounds. It provides a +55% error",
    "Type": "Shell"
  },
  {
    "Name": "Frangible #6 Birdshot",
    "Effect": "This ammunition is designed not to pierce solid surfaces, such as schoolhouse walls or aircraft bulkheads. It provides a +20% error range, regardless of the type of shot. Any object with a hardness of 2 or greater immediately defeats this ammunition.It provides a +4 attack bonus, a −12 damage penalty to armored targets,  and a +1 damage bonus to unarmored targets.",
    "Type": "Shell"
  },
  {
    "Name": "Frangible #3 Birdshot",
    "Effect": "This ammunition is designed not to pierce solid surfaces, such as schoolhouse walls or aircraft bulkheads. It provides a +20% error range, regardless of the type of shot. Any object with a hardness of 2 or greater immediately defeats this ammunition.It provides a +2 attack bonus, a −9 damage penalty to armored targets, and a +3 damage bonus to unarmored targets.",
    "Type": "Shell"
  },
  {
    "Name": "Frangible 00 Buckshot",
    "Effect": "This ammunition is designed not to pierce solid surfaces, such as schoolhouse walls or aircraft bulkheads. It provides a +20% error range, regardless of the type of shot. Any object with a hardness of 2 or greater immediately defeats this ammunition. It provides a −6 damage penalty to armored targets and a +6 damage bonus to unarmored targets.",
    "Type": "Shell"
  },
  {
    "Name": "Breaching",
    "Effect": " This ammunition is specially made for the purposes of door breaching. These shells contain a metallic powder that disperses on contact. When fired at an object it ignores 10 points of hardness, provides −2 damage dice, and +30% error range. They have a maximum range of 20 feet.",
    "Type": "Shell"
  },
  {
    "Name": "Blank",
    "Effect": "This ammunition lacks any projectile, simply creating a loud bang and a muzzle flash. It does no damage and provides a +40% error range. If blank ammunition makes up more than one-fifth of the rounds fired, the firearm does no damage.",
    "Type": "Shell"
  },
  {
    "Name": "Flechette",
    "Effect": " This ammunition is a bundle of flechette darts packed into a shell. When fired, the flechettes rip and shred their target. It does piercing damage instead of ballistic.",
    "Type": "Shell"
  },
  {
    "Name": "Tracer",
    "Effect": "This ammunition leaves a string of light when fired, allowing for corrections when firing multiple shots. It provides a +1 attack bonus for all multi-shot attack rolls as long as 50% of the fired rounds are tracers.",
    "Type": "Shell"
  },
  {
    "Name": "Explosive",
    "Effect": "This ammunition is a small shotgun grenade that works like a small grenade launcher grenade. When fired at an object it ignores 6 points of hardness. It provides a −1 attack penalty and −1 damage die, but all damage dealt is concussion and fire damage with a 5’ blast radius.",
    "Type": "Shell"
  },
  {
    "Name": "OC Shell",
    "Effect": "A shell that consists of tightly packed irritant powder. It shoots a 5-foot wide, 20-foot long line of OC powder that causes all those caught in the blast to make a Fortitude Saving Throw [TN15] or be blinded for 1d4 rounds. If a character is already blinded due to an effect that would be ineffective due to a gas mask, the original blinding effect is removed, and the new effect immediately takes place. No attack roll is necessary. A gas mask renders the target immune to the effects and a wet cloth held over the eyes, nose, and mouth provides a +2 bonus to the Fortitude Saving Throw. It provides a +50% error range.",
    "Type": "Shell"
  },
  {
    "Name": "Flamethrower",
    "Effect": "A shell that consists of tightly packed magnesium powder. It shoots a 5-foot wide, 20-foot long line of flame that deals 2d6 points of fire damage to all creatures and objects in its path. No attack roll is necessary. Any creature caught in the line of flame can make a Reflex Saving Throw [TN15] to take half damage. It provides a +50% error range.",
    "Type": "Shell"
  },
  {
    "Name": "Flare",
    "Effect": " A flare that illuminates a 30’ radius as if it were lit by daylight for 7 rounds. When used as a signal, a flare round may be spotted at a distance of 3 miles with a successful Perception check, [TN20] during the day or [TN15] at night. A flare may also be used as a weapon, with a maximum range of 30’ and the potential to do 2d4 fire damage. Anyone shot with a flare round must make a Reflex Saving Throw [TN18] or be caught on fire. A flare shell can also ignite flammable material and fluids. This ammunition provides a +45% error range.",
    "Type": "Shell"
  },
  {
    "Name": "Taser",
    "Effect": "A miniaturized taser unit packed into a shell that releases a powerful electrical current on impact. On a successful hit the shell deals 1d3 electricity damage and 1 non-lethal damage die. The target must make a Fortitude Saving Throw [TN15] or be paralyzed for 1d6 rounds.",
    "Type": "Shell"
  },
  {
    "Name": "Strung Buck",
    "Effect": "This ammunition consists of two heavy lead balls connected with a steel cable. It provides a +8 damage bonus and a −4 attack penalty. ",
    "Type": "Shell"
  }


