{

  "modrocket": [

    {
      "Name": "AT4",
      "Damage": "30d12",
      "Magazine": "Int:1 Unreloadable",
      "Upgrade": "None",
      "Range": "250'",
      "RateofFire": "Single",
      "Size": "L",
      "Weight": 236,
      "Cost": 74,
      "Error": 0,
      "License": "M&P",
      "Notes": "This weapon has a splash damage of 30'"
    },
    {
      "Name": "ERYX",
      "Damage": "38d12",
      "Magazine": "Int:1:1000/Missile",
      "Upgrade": "None",
      "Range": "400'",
      "RateofFire": "Single",
      "Size": "L",
      "Weight": 564,
      "Cost": 6000,
      "Error": 0,
      "License": "M&P",
      "Notes": "This weapon has a splash damage of 30' and ignores 25 points of hardness"
    },
    {
      "Name": "M47 Dragon",
      "Damage": "32d12",
      "Magazine": "Int:1:400/Missile",
      "Upgrade": "None",
      "Range": "220'",
      "RateofFire": "Single",
      "Size": "H",
      "Weight": 480,
      "Cost": 650,
      "Error": 0,
      "License": "M&P",
      "Notes": "This weapon has a splash damage of 30'"
    },
    {
      "Name": "M72 LAW",
      "Damage": "26d12",
      "Magazine": "Int:1 Unreloadable",
      "Upgrade": "None",
      "Range": "200'",
      "RateofFire": "Single",
      "Size": "L",
      "Weight": 80,
      "Cost": 52,
      "Error": 0,
      "License": "M&P",
      "Notes": "This weapon has a splash damage of 30' and ignores 10 points of hardness."
    },
    {
      "Name": "FGM-148 Javelin",
      "Damage": "40d12",
      "Magazine": "Int:1:2000/Missile",
      "Upgrade": "None",
      "Range": "400'",
      "RateofFire": "Single",
      "Size": "L",
      "Weight": 416,
      "Cost": 6250,
      "Error": 0,
      "License": "M&P",
      "Notes": "This weapon has a splash damage of 30' and ignores 25 points of hardness"
    },
    {
      "Name": "SMAW",
      "Damage": "Payload",
      "Magazine": "Int:1",
      "Upgrade": "O",
      "Range": "375'",
      "RateofFire": "Single",
      "Size": "L",
      "Weight": 270,
      "Cost": 650,
      "Error": 0,
      "License": "M&P",
      "Notes": "This weapon uses HEDP, HEAT and Thermobaric Rockets."
    },
    {
      "Name": "Panzerfaust 3",
      "Damage": "35d12",
      "Magazine": "Int:1:90/Rocket",
      "Upgrade": "None",
      "Range": "(350') 435'",
      "RateofFire": "Single",
      "Size": "L",
      "Weight": 448,
      "Cost": 600,
      "Error": 0,
      "License": "M&P",
      "Notes": "2.5x telescopic sight. This weapon has a splash damage of 30' and ignores 25 points of hardness"
    },
    {
      "Name": "RPG-7N2/RPG-7USA",
      "Damage": "Payload",
      "Magazine": "Int:1",
      "Upgrade": "O",
      "Range": "150'",
      "RateofFire": "Single",
      "Size": "L",
      "Weight": 240,
      "Cost": 150,
      "Error": 0,
      "License": "M&P",
      "Notes": "This weapon uses HEAT, Fragmentation and Thermobaric Rockets."
    },
    {
      "Name": "RPG-22",
      "Damage": "28d12",
      "Magazine": "Int:1 Unreloadable",
      "Upgrade": "None",
      "Range": "200'",
      "RateofFire": "Single",
      "Size": "L",
      "Weight": 96,
      "Cost": 40,
      "Error": 0,
      "License": "M&P",
      "Notes": "This weapon has a splash damage of 30' and ignores 25 points of hardness"
    }
  ],
  "korearocket": [
    {
      "Name": "M20 Super Bazooka/Type 51",
      "Damage": "15d12",
      "Magazine": "Int:1",
      "Upgrade": "None",
      "Range": "140'",
      "RateofFire": "Single",
      "Size": "L",
      "Weight": 224,
      "Cost": 300,
      "Error": 0,
      "License": "M&P",
      "Notes": "This weapon has a splash damage of 30' and ignores 15 points of hardness"
    },
    {
      "Name": "RPG-2",
      "Damage": "14d12",
      "Magazine": "Int:1",
      "Upgrade": "None",
      "Range": "145'",
      "RateofFire": "Single",
      "Size": "L",
      "Weight": 160,
      "Cost": 280,
      "Error": 0,
      "License": "M&P",
      "Notes": "This weapon has a splash damage of 20' and ignores 20 points of hardness"
    }
  ],
  "ww2rocket": [
    {
      "Name": "M1A1 Bazooka",
      "Damage": "10d12",
      "Magazine": "Int:1",
      "Upgrade": "None",
      "Range": "110'",
      "RateofFire": "Single",
      "Size": "L",
      "Weight": 192,
      "Cost": 23,
      "Error": 0,
      "License": "M&P",
      "Notes": "This weapon has a splash damage of 20' and ignores 15 points of hardness"
    },
    {
      "Name": "Panzerschreck",
      "Damage": "11d12",
      "Magazine": "Int:1",
      "Upgrade": "None",
      "Range": "130'",
      "RateofFire": "Single",
      "Size": "L",
      "Weight": 384,
      "Cost": 30,
      "Error": 0,
      "License": "M&P",
      "Notes": "This weapon has a splash damage of 30' and ignores 20 points of hardness"
    },
    {
      "Name": "PIAT",
      "Damage": "9d12",
      "Magazine": "Int:1",
      "Upgrade": "None",
      "Range": "90'",
      "RateofFire": "Single",
      "Size": "L",
      "Weight": 512,
      "Cost": 45,
      "Error": 0,
      "License": "M&P",
      "Notes": "This weapon has a splash damage of 20' and ignores 15 points of hardness"
    }

  ]

}