[
  {
    "RocketType": "High Explosive Anti Tank (HEAT)",
    "Damage": "19d12",
    "DamageType": "Concussion",
    "BlastRadius": "10'",
    "Size": "M",
    "Weight": 91,
    "Cost": 23,
    "License": "M&P",
    "Notes": "These rockets are packed with a shaped charge, that when impacted, destroy armored targets and buildings. A HEAT rocket ignores 20 points of Hardness."
  },
  {
    "RocketType": "High Explosive Dual Purpose (HEDP)",
    "Damage": "22d12",
    "DamageType": "Concussion/Slashing",
    "BlastRadius": "15'",
    "Size": "M",
    "Weight": 115,
    "Cost": 34,
    "License": "M&P",
    "Notes": "These rockets are packed with a shaped charge as well as fragmentation shrapnel, allowing them a dual purpose use against both armor and personnel. A HEDP rocket ignores 15 points of Hardness."
  },
  {
    "RocketType": "Fragmentation",
    "Damage": "10d12",
    "DamageType": "Slashing",
    "BlastRadius": "20'",
    "Size": "M",
    "Weight": 64,
    "Cost": 18,
    "License": "M&P",
    "Notes": "These rockets are packed with fragmentation shrapnel, primarily focused around eliminating personnel."
  },
  {
    "RocketType": "Thermobaric",
    "Damage": "13d12",
    "DamageType": "Fire",
    "BlastRadius": "25'",
    "Size": "M",
    "Weight": 158,
    "Cost": 30,
    "License": "M&P",
    "Notes": "These rockets are a fuel-air explosive, that use the surrounding air in order to keep the fire and explosion running. Anything caught in the burst fire radius of the explosion is immediately set on fire."
  }
]